…
countryInfo <- countryInfo %>%
  mutate(areaInSqKm = as.numeric(areaInSqKm)) %>%
  rename(area = areaInSqKm, country = countryCode)

# calculate pop density
joined_country <- left_join(gap, countryInfo, by = "country") %>%
  mutate(popdensity = pop/area) 

neat_join <- joined_country %>%
  select(countryName, continent.x, year, lifeExp, popdensity)

neat_join
```

    ## # A tibble: 1,704 x 5
    ##    countryName                     continent.x  year lifeExp popdensity
    ##    <chr>                           <fct>       <int>   <dbl>      <dbl>
    ##  1 Islamic Republic of Afghanistan Asia         1952    28.8       13.0
    ##  2 Islamic Republic of Afghanistan Asia         1957    30.3       14.3
    ##  3 Islamic Republic of Afghanistan Asia         1962    32.0       15.9
    ##  4 Islamic Republic of Afghanistan Asia         1967    34.0       17.8
    ##  5 Islamic Republic of Afghanistan Asia         1972    36.1       20.2
    ##  6 Islamic Republic of Afghanistan Asia         1977    38.4       23.0
    ##  7 Islamic Republic of Afghanistan Asia         1982    39.9       19.9
    ##  8 Islamic Republic of Afghanistan Asia         1987    40.8       21.4
    ##  9 Islamic Republic of Afghanistan Asia         1992    41.7       25.2
    ## 10 Islamic Republic of Afghanistan Asia         1997    41.8       34.3
    ## # … with 1,694 more rows
…
