…
neat_manga <- left_join(almost_manga_top, almost_manga_bottom, by = "rank") %>%
  select(-c(row.x, genre.x, title.y, row.y)) %>%
  rename(title = title.x, genre = genre.y) %>%
  mutate(rank = as.numeric(rank)) %>%
  mutate(rank = rank + 25*(pg-1))

neat_manga
}

# test function
multiple_manga(2)
```

    ## # A tibble: 25 x 3
    ##     rank title                                 genre                            
    ##    <dbl> <chr>                                 <chr>                            
    ##  1    26 Wonsureul Saranghara                   Drama, Josei, Romance           
    ##  2    27 Men of the Harem                       Drama, Fantasy, Harem, Josei, R…
    ##  3    28 The Reason Why Raeliana Ended up at …  Fantasy, Mystery, Romance, Shou…
    ##  4    29 I Fell into a Reverse Harem Game!      Fantasy, Harem, Romance, Shoujo 
    ##  5    30 The Boxer                              Action, Martial Arts, Seinen, S…
    ##  6    31 Valhalla Otintin-kan                   Adult, Fantasy, Harem, Seinen   
    ##  7    32 Stepmother's Friends                   Adult, Drama, Harem, Romance, S…
    ##  8    33 A Tender Heart: The Story of How I B…  Comedy, Drama, Fantasy, Romance…
    ##  9    34 The Lady and the Beast (Hongseul)      Fantasy, Historical, Josei, Rom…
    ## 10    35 I Am the Real One                      Drama, Fantasy, Shoujo          
    ## # … with 15 more rows

``` r
# iterate function to get multiple pgs of results
manga_pgs <- c(1, 2, 3)

manga_75 <- map_dfr(.x = manga_pgs, .f = multiple_manga)

# tidy df to be used for analysis
manga_75
```

    ## # A tibble: 75 x 3
    ##     rank title                     genre                                        
    ##    <dbl> <chr>                     <chr>                                        
    ##  1     1 Unholy Blood               Action, Fantasy, Romance, Slice of Life, Su…
    ##  2     2 Who Made Me a Princess     Comedy, Fantasy, Romance, Shoujo, Slice of …
    ##  3     3 I Woke Up as the Ugly Du…  Fantasy, Romance, Shoujo                    
    ##  4     4 The Beloved Little Princ…  Fantasy, Historical, Shoujo, Slice of Life  
    ##  5     5 I'll Be the Matriarch in…  Drama, Fantasy, Historical, Romance, Shoujo 
    ##  6     6 Tensei Shitara Slime Dat…  Action, Adventure, Comedy, Drama, Fantasy, …
    ##  7     7 Daddy, I Don't Want to M…  Drama, Fantasy, Romance, Shoujo             
    ##  8     8 Poison Dragon: The Legen…  Action, Adventure, Drama, Fantasy, Martial …
    ##  9     9 The Second Coming of Glu…  Action, Adventure, Drama, Fantasy, Harem, M…
    ## 10    10 Horimiya                   Comedy, Romance, School Life, Shounen, Slic…
    ## # … with 65 more rows
…
